module github.com/hashicorp/terraform-ls

go 1.21.3

require (
	github.com/algolia/algoliasearch-client-go/v3 v3.31.0
	github.com/apparentlymart/go-textseg v1.0.0
	github.com/creachadair/jrpc2 v1.1.1
	github.com/google/go-cmp v0.6.0
	github.com/hashicorp/go-cleanhttp v0.5.2
	github.com/hashicorp/go-memdb v1.3.4
	github.com/hashicorp/go-multierror v1.1.1
	github.com/hashicorp/go-uuid v1.0.3
	github.com/hashicorp/go-version v1.6.0
	github.com/hashicorp/hc-install v0.6.1
	github.com/hashicorp/hcl-lang v0.0.0-20231107133629-c89603e93360
	github.com/hashicorp/hcl/v2 v2.19.1
	github.com/hashicorp/terraform-exec v0.19.0
	github.com/hashicorp/terraform-json v0.18.0
	github.com/hashicorp/terraform-registry-address v0.2.3
	github.com/hashicorp/terraform-schema v0.0.0-20231103135256-8af5a0749d10
	github.com/mcuadros/go-defaults v1.2.0
	github.com/mh-cbon/go-fmt-fail v0.0.0-20160815164508-67765b3fbcb5
	github.com/mitchellh/cli v1.1.5
	github.com/mitchellh/go-homedir v1.1.0
	github.com/mitchellh/mapstructure v1.5.0
	github.com/otiai10/copy v1.14.0
	github.com/pmezard/go-difflib v1.0.0
	github.com/stretchr/testify v1.8.4
	github.com/vektra/mockery/v2 v2.37.0
	github.com/zclconf/go-cty v1.14.1
	github.com/zclconf/go-cty-debug v0.0.0-20191215020915-b22d67c1ba0b
	go.bobheadxi.dev/gobenchdata v1.3.1
	go.opentelemetry.io/otel/trace v1.20.0
	golang.org/x/tools v0.15.0
)

require (
	github.com/apparentlymart/go-textseg/v15 v15.0.0 // indirect
	github.com/felixge/httpsnoop v1.0.4 // indirect
	github.com/go-logr/logr v1.3.0 // indirect
	github.com/go-logr/stdr v1.2.2 // indirect
	go.opentelemetry.io/otel/metric v1.20.0 // indirect
)

require (
	github.com/Masterminds/goutils v1.1.1 // indirect
	github.com/Masterminds/semver/v3 v3.2.1 // indirect
	github.com/Masterminds/sprig/v3 v3.2.1 // indirect
	github.com/ProtonMail/go-crypto v0.0.0-20230828082145-3c4c8a2d2371 // indirect
	github.com/agext/levenshtein v1.2.2 // indirect
	github.com/antonmedv/expr v1.10.5 // indirect
	github.com/armon/go-radix v0.0.0-20180808171621-7fddfc383310 // indirect
	github.com/bgentry/speakeasy v0.1.0 // indirect
	github.com/chigopher/pathlib v1.0.0 // indirect
	github.com/cloudflare/circl v1.3.3 // indirect
	github.com/creachadair/mds v0.1.0 // indirect
	github.com/davecgh/go-spew v1.1.1 // indirect
	github.com/djherbis/buffer v1.2.0 // indirect
	github.com/djherbis/nio/v3 v3.0.1 // indirect
	github.com/fatih/color v1.15.0 // indirect
	github.com/fsnotify/fsnotify v1.6.0 // indirect
	github.com/google/uuid v1.3.0 // indirect
	github.com/hashicorp/errwrap v1.0.0 // indirect
	github.com/hashicorp/go-immutable-radix v1.3.1 // indirect
	github.com/hashicorp/golang-lru v0.5.4 // indirect
	github.com/hashicorp/hcl v1.0.0 // indirect
	github.com/hashicorp/terraform-svchost v0.1.1 // indirect
	github.com/huandu/xstrings v1.4.0 // indirect
	github.com/iancoleman/strcase v0.2.0 // indirect
	github.com/imdario/mergo v0.3.15 // indirect
	github.com/inconshreveable/mousetrap v1.1.0 // indirect
	github.com/jinzhu/copier v0.3.5 // indirect
	github.com/kr/pretty v0.3.1 // indirect
	github.com/kylelemons/godebug v1.1.0 // indirect
	github.com/magiconair/properties v1.8.7 // indirect
	github.com/mattn/go-colorable v0.1.13 // indirect
	github.com/mattn/go-isatty v0.0.17 // indirect
	github.com/mattn/go-runewidth v0.0.14 // indirect
	github.com/mitchellh/copystructure v1.2.0 // indirect
	github.com/mitchellh/go-wordwrap v1.0.1 // indirect
	github.com/mitchellh/reflectwalk v1.0.2 // indirect
	github.com/olekukonko/tablewriter v0.0.5 // indirect
	github.com/pelletier/go-toml/v2 v2.0.6 // indirect
	github.com/posener/complete v1.1.1 // indirect
	github.com/rivo/uniseg v0.2.0 // indirect
	github.com/rs/zerolog v1.29.0 // indirect
	github.com/shopspring/decimal v1.2.0 // indirect
	github.com/spf13/afero v1.9.3 // indirect
	github.com/spf13/cast v1.5.0 // indirect
	github.com/spf13/cobra v1.6.1 // indirect
	github.com/spf13/jwalterweatherman v1.1.0 // indirect
	github.com/spf13/pflag v1.0.5 // indirect
	github.com/spf13/viper v1.15.0 // indirect
	github.com/stretchr/objx v0.5.0 // indirect
	github.com/subosito/gotenv v1.4.2 // indirect
	go.bobheadxi.dev/streamline v1.2.1 // indirect
	go.opentelemetry.io/contrib/instrumentation/net/http/httptrace/otelhttptrace v0.46.0
	go.opentelemetry.io/contrib/instrumentation/net/http/otelhttp v0.46.0
	go.opentelemetry.io/otel v1.20.0
	golang.org/x/crypto v0.15.0 // indirect
	golang.org/x/mod v0.14.0 // indirect
	golang.org/x/net v0.18.0 // indirect
	golang.org/x/sync v0.5.0 // indirect
	golang.org/x/sys v0.14.0 // indirect
	golang.org/x/term v0.14.0 // indirect
	golang.org/x/text v0.14.0 // indirect
	gopkg.in/ini.v1 v1.67.0 // indirect
	gopkg.in/yaml.v2 v2.4.0 // indirect
	gopkg.in/yaml.v3 v3.0.1 // indirect
)
